Annee,Nourriture (kT),Alim_animaux (kT),Autres (kT)
1961.0,840.0,463.0,24530.0
1962.0,1001.0,498.0,23640.0
1963.0,1024.0,737.0,27778.0
1964.0,1016.0,760.0,24188.0
1965.0,1093.0,710.0,27765.0
1966.0,1079.0,767.0,29448.0
1967.0,1115.0,604.0,30780.0
1968.0,1159.0,605.0,30022.0
1969.0,1158.0,765.0,29703.0
1970.0,1116.0,915.0,31108.0
1971.0,1186.0,905.0,33610.0
1972.0,1216.0,946.0,35017.0
1973.0,1258.0,902.0,35410.0
1974.0,1222.0,1022.0,37144.0
1975.0,1285.0,1006.0,40126.0
1976.0,1328.0,1117.0,39835.0
1977.0,1365.0,1356.0,41132.0
1978.0,1397.0,1224.0,42994.0
1979.0,1403.0,1772.0,43795.0
1980.0,1406.0,1758.0,46092.0
1981.0,1390.0,1996.0,42444.0
1982.0,1410.0,2252.0,46152.0
1983.0,1435.0,2324.0,44759.0
1984.0,1398.0,2377.0,42906.0
1985.0,1553.0,2609.0,45552.0
1986.0,1742.0,2742.0,45517.0
1987.0,1916.0,3705.0,52036.0
1988.0,1818.0,4240.0,48653.0
1989.0,1989.0,3980.0,49103.0
1990.0,1859.0,3958.0,48090.0
1991.0,1799.0,4115.0,50437.0
1992.0,1401.0,3009.0,44658.0
1993.0,1415.0,2833.0,41687.0
1994.0,1398.0,3834.0,42626.0
1995.0,1449.0,3572.0,46123.0
1996.0,1520.0,3041.0,48503.0
1997.0,1691.0,3238.0,51150.0
1998.0,1746.0,3153.0,50157.0
1999.0,1757.0,3539.0,51249.0
2000.0,1926.0,2988.0,52790.0
2001.0,1919.0,3677.0,55417.0
2002.0,1933.0,4693.0,52543.0
2003.0,1942.0,4472.0,56615.0
2004.0,1900.0,5117.0,57179.0
2005.0,1991.0,4649.0,58564.0
2006.0,2022.0,4348.0,61982.0
2007.0,2248.0,4815.0,63796.0
2008.0,2279.0,4540.0,65140.0
2009.0,2263.0,5106.0,72391.0
2010.0,2338.0,5652.0,75075.0
2011.0,2459.0,5746.0,74886.0
2012.0,2585.0,4316.0,75468.0
2013.0,2491.0,5827.0,85022.0
2014.0,2178.0,6390.0,85547.0
2015.0,2108.0,4481.0,90027.0
2016.0,2263.0,5449.0,90933.0
2017.0,2328.0,5162.0,95168.0
2018.0,2436.0,5383.0,101149.0
