id_territoire;nom_territoire;categorie_territoire;nb_departements;moyenne;ecart-type;mediane;min;max;Q1;Q3
P-FR;France;PAYS;96;2.050104166666667;1.4651793457972564;1.8050000000000002;0.0;6.78;1.05;2.77
R-11;Île-de-France;REGION;8;0.07875;;0.045;;;0.0;0.1
R-24;Centre-Val de Loire;REGION;6;1.9616666666666667;;1.645;;;1.41;2.4
R-27;Bourgogne-Franche-Comté;REGION;8;1.8450000000000002;;1.85;;;1.75;2.22
R-28;Normandie;REGION;5;1.754;;1.17;;;1.05;2.73
R-32;Hauts-de-France;REGION;5;1.0699999999999998;;0.82;;;0.68;1.66
R-44;Grand Est;REGION;10;1.95;;1.6600000000000001;;;1.31;2.77
R-52;Pays de la Loire;REGION;5;2.0780000000000003;;1.65;;;1.06;1.99
R-53;Bretagne;REGION;4;2.035;;1.7850000000000001;;;1.73;1.84
R-75;Nouvelle-Aquitaine;REGION;12;3.1966666666666668;;3.0949999999999998;;;2.16;3.37
R-76;Occitanie;REGION;13;3.3092307692307688;;3.42;;;1.85;4.5
R-84;Auvergne-Rhône-Alpes;REGION;12;2.1200000000000006;;1.625;;;1.08;2.5
R-93;Provence-Alpes-Côte d'Azur;REGION;6;1.3316666666666668;;1.475;;;0.53;1.95
R-94;Corse;REGION;2;1.345;;1.345;;;1.02;1.67
