id_territoire;nom_territoire;categorie_territoire;nb_departements;moyenne;ecart-type;mediane;min;max;Q1;Q3
P-FR;France;PAYS;96;8730.822916666666;5109.136725915727;8500.5;0.0;27991.0;5392.0;11790.0
R-11;Île-de-France;REGION;8;1006.25;;515.0;;;24.0;1144.0
R-24;Centre-Val de Loire;REGION;6;7213.666666666667;;7429.5;;;5896.0;8038.0
R-27;Bourgogne-Franche-Comté;REGION;8;6650.125;;6025.0;;;4547.0;7565.0
R-28;Normandie;REGION;5;9230.0;;7789.0;;;7009.0;11846.0
R-32;Hauts-de-France;REGION;5;9656.0;;9659.0;;;8878.0;11974.0
R-44;Grand Est;REGION;10;9078.6;;5939.5;;;5025.0;11487.0
R-52;Pays de la Loire;REGION;5;10838.0;;11270.0;;;9067.0;12700.0
R-53;Bretagne;REGION;4;15171.25;;16021.5;;;15828.0;16215.0
R-75;Nouvelle-Aquitaine;REGION;12;12772.75;;10609.5;;;9463.0;13443.0
R-76;Occitanie;REGION;13;9857.923076923076;;9158.0;;;7837.0;12208.0
R-84;Auvergne-Rhône-Alpes;REGION;12;8762.416666666666;;9311.0;;;7829.0;10271.0
R-93;Provence-Alpes-Côte d'Azur;REGION;6;7120.833333333333;;6821.0;;;2943.0;11193.0
R-94;Corse;REGION;2;2117.5;;2117.5;;;1461.0;2774.0
