id_region;annee_achat;classification;quantite_substance_kg;NODU_ha;quantite_substance_sans_du_kg
R-01;2013;T, T+, CMR;0.00;0.00;0.00
R-01;2014;T, T+, CMR;0.01;0.36;0.00
R-01;2015;T, T+, CMR;3.57;2.87;0.00
R-01;2016;T, T+, CMR;1045.34;938.08;0.00
R-01;2017;T, T+, CMR;1517.87;1212.05;0.00
R-01;2018;T, T+, CMR;3812.16;11131.50;0.03
R-01;2019;CMR;2186.50;2094.17;0.00
R-02;2013;T, T+, CMR;10364.52;7799.53;0.47
R-02;2014;T, T+, CMR;27.50;148.30;0.00
R-02;2015;T, T+, CMR;530.44;1001.12;0.00
R-02;2016;T, T+, CMR;359.96;860.49;0.00
R-02;2017;T, T+, CMR;540.35;729.08;0.00
R-02;2018;T, T+, CMR;1532.25;5918.71;0.00
R-02;2019;CMR;197.12;261.06;0.00
R-03;2013;T, T+, CMR;0.72;3.51;0.00
R-03;2014;T, T+, CMR;36.26;124.69;0.00
R-03;2015;T, T+, CMR;113.27;342.66;0.00
R-03;2016;T, T+, CMR;22.72;48.63;0.00
R-03;2017;T, T+, CMR;287.28;364.46;0.00
R-03;2018;T, T+, CMR;1.83;162.83;0.00
R-03;2019;CMR;21.11;37.88;0.00
R-04;2014;T, T+, CMR;294.24;2681.48;0.00
R-04;2015;T, T+, CMR;21637.49;53682.02;0.84
R-04;2016;T, T+, CMR;1109.47;7750.29;0.00
R-04;2017;T, T+, CMR;242.22;3186.71;0.00
R-04;2018;T, T+, CMR;8.24;22.80;0.00
R-04;2019;CMR;5744.45;13066.52;0.00
R-06;2014;T, T+, CMR;14.02;284.46;0.00
R-06;2015;T, T+, CMR;69.45;231.81;0.00
R-06;2016;T, T+, CMR;82.24;226.50;0.00
R-06;2017;T, T+, CMR;42.03;73.08;0.00
R-06;2018;T, T+, CMR;76.57;67.72;0.00
R-06;2019;CMR;38.00;26.94;0.00
R-11;2013;T, T+, CMR;79976.66;242577.75;6.30
R-11;2014;T, T+, CMR;218207.81;691580.84;0.93
R-11;2015;T, T+, CMR;599848.99;1525745.66;34.23
R-11;2016;T, T+, CMR;618347.85;1649222.10;30.38
R-11;2017;T, T+, CMR;508773.26;1395617.87;18.24
R-11;2018;T, T+, CMR;586325.50;1689851.76;15.62
R-11;2019;CMR;288359.05;559532.11;44.27
R-24;2013;T, T+, CMR;191635.66;488817.41;6.43
R-24;2014;T, T+, CMR;690263.37;1965676.49;0.23
R-24;2015;T, T+, CMR;1826484.86;4529056.57;172.18
R-24;2016;T, T+, CMR;1836838.85;4708892.56;174.65
R-24;2017;T, T+, CMR;1524726.76;4069000.91;151.03
R-24;2018;T, T+, CMR;1790640.52;4697261.34;152.90
R-24;2019;CMR;847137.44;1795679.94;275.44
R-27;2013;T, T+, CMR;150834.49;497200.12;0.05
R-27;2014;T, T+, CMR;400916.46;1162870.10;26.38
R-27;2015;T, T+, CMR;955741.62;2402755.46;10.45
R-27;2016;T, T+, CMR;996613.26;2537931.24;8.42
R-27;2017;T, T+, CMR;856195.25;2202780.47;11.11
R-27;2018;T, T+, CMR;913277.83;2649991.27;30.71
R-27;2019;CMR;383224.34;803578.86;133.78
R-28;2013;T, T+, CMR;356040.43;631536.73;7.51
R-28;2014;T, T+, CMR;697674.70;1551795.14;8.28
R-28;2015;T, T+, CMR;1345470.74;3121879.06;30.72
R-28;2016;T, T+, CMR;1464747.26;3355251.46;30.09
R-28;2017;T, T+, CMR;1214555.38;2857063.09;28.47
R-28;2018;T, T+, CMR;1394516.07;3926189.57;44.84
R-28;2019;CMR;616669.34;1182132.56;92.23
R-32;2013;T, T+, CMR;191719.09;473956.47;0.00
R-32;2014;T, T+, CMR;895296.99;2365988.51;17.91
R-32;2015;T, T+, CMR;2063594.11;4970366.01;73.89
R-32;2016;T, T+, CMR;2895409.28;6525822.38;93.19
R-32;2017;T, T+, CMR;2461338.07;5335193.07;45.69
R-32;2018;T, T+, CMR;4629592.47;8842536.42;21.74
R-32;2019;CMR;1528637.57;2261927.84;68.44
R-44;2013;T, T+, CMR;314204.90;1010040.12;1.75
R-44;2014;T, T+, CMR;764389.44;2210832.98;16.54
R-44;2015;T, T+, CMR;1818541.15;4516798.04;30.20
R-44;2016;T, T+, CMR;2024646.32;5295536.54;29.10
R-44;2017;T, T+, CMR;1606685.25;4477491.11;27.36
R-44;2018;T, T+, CMR;1868047.54;5007085.53;34.22
R-44;2019;CMR;1017424.78;2175017.13;282.55
R-52;2013;T, T+, CMR;297591.57;431619.45;41.78
R-52;2014;T, T+, CMR;477381.65;971907.46;20.48
R-52;2015;T, T+, CMR;973772.22;2377553.13;573.84
R-52;2016;T, T+, CMR;901230.24;2371120.64;507.21
R-52;2017;T, T+, CMR;757325.60;2134982.16;442.41
R-52;2018;T, T+, CMR;785308.47;2368145.17;448.26
R-52;2019;CMR;385460.10;1010848.08;437.91
R-53;2013;T, T+, CMR;64527.10;111018.58;0.58
R-53;2014;T, T+, CMR;283688.93;658087.78;10.44
R-53;2015;T, T+, CMR;591987.36;1571726.72;34.46
R-53;2016;T, T+, CMR;579329.61;1594122.87;21.26
R-53;2017;T, T+, CMR;482632.66;1456665.78;20.09
R-53;2018;T, T+, CMR;526588.98;1815833.33;20.80
R-53;2019;CMR;304814.99;774225.20;48.99
R-75;2013;T, T+, CMR;345310.02;755690.28;8.09
R-75;2014;T, T+, CMR;804800.46;2091828.36;27.86
R-75;2015;T, T+, CMR;2225541.77;5034926.63;485.68
R-75;2016;T, T+, CMR;2351950.29;5472710.63;325.14
R-75;2017;T, T+, CMR;2009943.88;4988410.44;348.11
R-75;2018;T, T+, CMR;2617729.09;5874262.00;369.28
R-75;2019;CMR;1083715.55;2233756.11;590.70
R-76;2013;T, T+, CMR;153685.61;410478.26;2.32
R-76;2014;T, T+, CMR;432466.28;1401538.90;12.89
R-76;2015;T, T+, CMR;1549485.30;3222592.99;527.41
R-76;2016;T, T+, CMR;1762718.69;3938771.95;519.27
R-76;2017;T, T+, CMR;1539334.98;3552424.62;460.34
R-76;2018;T, T+, CMR;2225592.54;4497097.57;462.20
R-76;2019;CMR;780232.47;1560303.49;367.99
R-84;2013;T, T+, CMR;112788.71;264299.27;2.92
R-84;2014;T, T+, CMR;254400.36;657060.24;36.43
R-84;2015;T, T+, CMR;635453.09;1577386.86;191.47
R-84;2016;T, T+, CMR;600435.12;1677837.78;150.47
R-84;2017;T, T+, CMR;529156.43;1528013.12;170.91
R-84;2018;T, T+, CMR;653513.97;1665999.65;182.30
R-84;2019;CMR;241057.74;636303.94;192.93
R-93;2013;T, T+, CMR;50737.87;84051.16;4.93
R-93;2014;T, T+, CMR;174474.27;335308.26;8.66
R-93;2015;T, T+, CMR;437167.26;657689.32;390.00
R-93;2016;T, T+, CMR;426135.22;770768.59;509.82
R-93;2017;T, T+, CMR;360267.47;650694.05;405.32
R-93;2018;T, T+, CMR;603604.80;935272.57;429.11
R-93;2019;CMR;180881.45;291597.70;510.91
R-94;2013;T, T+, CMR;785.50;1443.13;0.20
R-94;2014;T, T+, CMR;10910.49;22544.83;0.21
R-94;2015;T, T+, CMR;20282.55;31990.94;0.00
R-94;2016;T, T+, CMR;23874.15;53561.93;0.92
R-94;2017;T, T+, CMR;22878.11;52717.61;0.32
R-94;2018;T, T+, CMR;23928.02;53903.94;1.80
R-94;2019;CMR;10947.93;27504.06;1.10
region_indeterminee;2013;T, T+, CMR;26237.27;84721.63;21.44
region_indeterminee;2014;T, T+, CMR;178962.06;449839.93;27.00
region_indeterminee;2015;T, T+, CMR;359389.43;1197073.07;6.98
region_indeterminee;2016;T, T+, CMR;321123.74;1155333.56;49.40
region_indeterminee;2017;T, T+, CMR;285482.90;1097606.01;5.29
region_indeterminee;2018;T, T+, CMR;254781.85;750658.96;4.65
region_indeterminee;2019;CMR;25197.07;49792.84;98.92
toutes_regions;2013;T, T+, CMR;2357992.65;5607095.89;104.77
toutes_regions;2014;T, T+, CMR;6304895.58;16715628.99;214.26
toutes_regions;2015;T, T+, CMR;15460555.76;37014611.45;2564.97
toutes_regions;2016;T, T+, CMR;16835344.20;41277606.84;2450.04
toutes_regions;2017;T, T+, CMR;14182079.04;35864036.95;2134.74
toutes_regions;2018;T, T+, CMR;18902643.27;44850139.49;2218.48
toutes_regions;2019;CMR;7712185.61;15394534.43;3147.60
